%YAML 1.1
%TAG !u! tag:unity3d.com,2011:
--- !u!29 &1
OcclusionCullingSettings:
  m_ObjectHideFlags: 0
  serializedVersion: 2
  m_OcclusionBakeSettings:
    smallestOccluder: 5
    smallestHole: 0.25
    backfaceThreshold: 100
  m_SceneGUID: 00000000000000000000000000000000
  m_OcclusionCullingData: {fileID: 0}
--- !u!104 &2
RenderSettings:
  m_ObjectHideFlags: 0
  serializedVersion: 9
  m_Fog: 0
  m_FogColor: {r: 0.5, g: 0.5, b: 0.5, a: 1}
  m_FogMode: 3
  m_FogDensity: 0.01
  m_LinearFogStart: 0
  m_LinearFogEnd: 300
  m_AmbientSkyColor: {r: 0.212, g: 0.227, b: 0.259, a: 1}
  m_AmbientEquatorColor: {r: 0.114, g: 0.125, b: 0.133, a: 1}
  m_AmbientGroundColor: {r: 0.047, g: 0.043, b: 0.035, a: 1}
  m_AmbientIntensity: 1
  m_AmbientMode: 0
  m_SubtractiveShadowColor: {r: 0.42, g: 0.478, b: 0.627, a: 1}
  m_SkyboxMaterial: {fileID: 10304, guid: 0000000000000000f000000000000000, type: 0}
  m_HaloStrength: 0.5
  m_FlareStrength: 1
  m_FlareFadeSpeed: 3
  m_HaloTexture: {fileID: 0}
  m_SpotCookie: {fileID: 10001, guid: 0000000000000000e000000000000000, type: 0}
  m_DefaultReflectionMode: 0
  m_DefaultReflectionResolution: 128
  m_ReflectionBounces: 1
  m_ReflectionIntensity: 1
  m_CustomReflection: {fileID: 0}
  m_Sun: {fileID: 0}
  m_IndirectSpecularColor: {r: 0.18028378, g: 0.22571412, b: 0.30692285, a: 1}
  m_UseRadianceAmbientProbe: 0
--- !u!157 &3
LightmapSettings:
  m_ObjectHideFlags: 0
  serializedVersion: 12
  m_GIWorkflowMode: 1
  m_GISettings:
    serializedVersion: 2
    m_BounceScale: 1
    m_IndirectOutputScale: 1
    m_AlbedoBoost: 1
    m_EnvironmentLightingMode: 0
    m_EnableBakedLightmaps: 1
    m_EnableRealtimeLightmaps: 0
  m_LightmapEditorSettings:
    serializedVersion: 12
    m_Resolution: 2
    m_BakeResolution: 40
    m_AtlasSize: 1024
    m_AO: 0
    m_AOMaxDistance: 1
    m_CompAOExponent: 1
    m_CompAOExponentDirect: 0
    m_ExtractAmbientOcclusion: 0
    m_Padding: 2
    m_LightmapParameters: {fileID: 0}
    m_LightmapsBakeMode: 1
    m_TextureCompression: 1
    m_FinalGather: 0
    m_FinalGatherFiltering: 1
    m_FinalGatherRayCount: 256
    m_ReflectionCompression: 2
    m_MixedBakeMode: 2
    m_BakeBackend: 1
    m_PVRSampling: 1
    m_PVRDirectSampleCount: 32
    m_PVRSampleCount: 512
    m_PVRBounces: 2
    m_PVREnvironmentSampleCount: 256
    m_PVREnvironmentReferencePointCount: 2048
    m_PVRFilteringMode: 1
    m_PVRDenoiserTypeDirect: 1
    m_PVRDenoiserTypeIndirect: 1
    m_PVRDenoiserTypeAO: 1
    m_PVRFilterTypeDirect: 0
    m_PVRFilterTypeIndirect: 0
    m_PVRFilterTypeAO: 0
    m_PVREnvironmentMIS: 1
    m_PVRCulling: 1
    m_PVRFilteringGaussRadiusDirect: 1
    m_PVRFilteringGaussRadiusIndirect: 5
    m_PVRFilteringGaussRadiusAO: 2
    m_PVRFilteringAtrousPositionSigmaDirect: 0.5
    m_PVRFilteringAtrousPositionSigmaIndirect: 2
    m_PVRFilteringAtrousPositionSigmaAO: 1
    m_ExportTrainingData: 0
    m_TrainingDataDestination: TrainingData
    m_LightProbeSampleCountMultiplier: 4
  m_LightingDataAsset: {fileID: 0}
  m_LightingSettings: {fileID: 0}
--- !u!196 &4
NavMeshSettings:
  serializedVersion: 2
  m_ObjectHideFlags: 0
  m_BuildSettings:
    serializedVersion: 2
    agentTypeID: 0
    agentRadius: 0.5
    agentHeight: 2
    agentSlope: 45
    agentClimb: 0.4
    ledgeDropHeight: 0
    maxJumpAcrossDistance: 0
    minRegionArea: 2
    manualCellSize: 0
    cellSize: 0.16666667
    manualTileSize: 0
    tileSize: 256
    accuratePlacement: 0
    maxJobWorkers: 0
    preserveTilesOutsideBounds: 0
    debug:
      m_Flags: 0
  m_NavMeshData: {fileID: 0}
--- !u!224 &112852319 stripped
RectTransform:
  m_CorrespondingSourceObject: {fileID: 5191438123925887788, guid: 87828d32ba1117d448b2dff47759daa4,
    type: 3}
  m_PrefabInstance: {fileID: 5191438124143949169}
  m_PrefabAsset: {fileID: 0}
--- !u!1 &340034148
GameObject:
  m_ObjectHideFlags: 0
  m_CorrespondingSourceObject: {fileID: 0}
  m_PrefabInstance: {fileID: 0}
  m_PrefabAsset: {fileID: 0}
  serializedVersion: 6
  m_Component:
  - component: {fileID: 340034149}
  m_Layer: 0
  m_Name: ---UI---
  m_TagString: Untagged
  m_Icon: {fileID: 0}
  m_NavMeshLayer: 0
  m_StaticEditorFlags: 0
  m_IsActive: 1
--- !u!4 &340034149
Transform:
  m_ObjectHideFlags: 0
  m_CorrespondingSourceObject: {fileID: 0}
  m_PrefabInstance: {fileID: 0}
  m_PrefabAsset: {fileID: 0}
  m_GameObject: {fileID: 340034148}
  m_LocalRotation: {x: 0, y: 0, z: 0, w: 1}
  m_LocalPosition: {x: 3.9692352, y: 0.14861691, z: -1.8425584}
  m_LocalScale: {x: 1, y: 1, z: 1}
  m_ConstrainProportionsScale: 0
  m_Children:
  - {fileID: 786314849}
  - {fileID: 112852319}
  m_Father: {fileID: 0}
  m_RootOrder: 6
  m_LocalEulerAnglesHint: {x: 0, y: 0, z: 0}
--- !u!1 &410087039
GameObject:
  m_ObjectHideFlags: 0
  m_CorrespondingSourceObject: {fileID: 0}
  m_PrefabInstance: {fileID: 0}
  m_PrefabAsset: {fileID: 0}
  serializedVersion: 6
  m_Component:
  - component: {fileID: 410087041}
  - component: {fileID: 410087040}
  - component: {fileID: 410087042}
  m_Layer: 0
  m_Name: Directional Light
  m_TagString: Untagged
  m_Icon: {fileID: 0}
  m_NavMeshLayer: 0
  m_StaticEditorFlags: 0
  m_IsActive: 1
--- !u!108 &410087040
Light:
  m_ObjectHideFlags: 0
  m_CorrespondingSourceObject: {fileID: 0}
  m_PrefabInstance: {fileID: 0}
  m_PrefabAsset: {fileID: 0}
  m_GameObject: {fileID: 410087039}
  m_Enabled: 1
  serializedVersion: 10
  m_Type: 1
  m_Shape: 0
  m_Color: {r: 1, g: 1, b: 1, a: 1}
  m_Intensity: 2
  m_Range: 10
  m_SpotAngle: 30
  m_InnerSpotAngle: 21.80208
  m_CookieSize: 10
  m_Shadows:
    m_Type: 2
    m_Resolution: -1
    m_CustomResolution: -1
    m_Strength: 1
    m_Bias: 0.05
    m_NormalBias: 0.4
    m_NearPlane: 0.2
    m_CullingMatrixOverride:
      e00: 1
      e01: 0
      e02: 0
      e03: 0
      e10: 0
      e11: 1
      e12: 0
      e13: 0
      e20: 0
      e21: 0
      e22: 1
      e23: 0
      e30: 0
      e31: 0
      e32: 0
      e33: 1
    m_UseCullingMatrixOverride: 0
  m_Cookie: {fileID: 0}
  m_DrawHalo: 0
  m_Flare: {fileID: 0}
  m_RenderMode: 0
  m_CullingMask:
    serializedVersion: 2
    m_Bits: 4294967295
  m_RenderingLayerMask: 1
  m_Lightmapping: 4
  m_LightShadowCasterMode: 0
  m_AreaSize: {x: 1, y: 1}
  m_BounceIntensity: 1
  m_ColorTemperature: 5000
  m_UseColorTemperature: 1
  m_BoundingSphereOverride: {x: 0, y: 0, z: 0, w: 0}
  m_UseBoundingSphereOverride: 0
  m_UseViewFrustumForShadowCasterCull: 1
  m_ShadowRadius: 0
  m_ShadowAngle: 0
--- !u!4 &410087041
Transform:
  m_ObjectHideFlags: 0
  m_CorrespondingSourceObject: {fileID: 0}
  m_PrefabInstance: {fileID: 0}
  m_PrefabAsset: {fileID: 0}
  m_GameObject: {fileID: 410087039}
  m_LocalRotation: {x: 0.40821788, y: -0.23456968, z: 0.10938163, w: 0.8754261}
  m_LocalPosition: {x: -3.6081536, y: 2.6963634, z: 1.8302035}
  m_LocalScale: {x: 1, y: 1, z: 1}
  m_ConstrainProportionsScale: 0
  m_Children: []
  m_Father: {fileID: 2122922199}
  m_RootOrder: 0
  m_LocalEulerAnglesHint: {x: 50, y: -30, z: 0}
--- !u!114 &410087042
MonoBehaviour:
  m_ObjectHideFlags: 0
  m_CorrespondingSourceObject: {fileID: 0}
  m_PrefabInstance: {fileID: 0}
  m_PrefabAsset: {fileID: 0}
  m_GameObject: {fileID: 410087039}
  m_Enabled: 1
  m_EditorHideFlags: 0
  m_Script: {fileID: 11500000, guid: 474bcb49853aa07438625e644c072ee6, type: 3}
  m_Name: 
  m_EditorClassIdentifier: 
  m_Version: 1
  m_UsePipelineSettings: 1
  m_AdditionalLightsShadowResolutionTier: 2
  m_LightLayerMask: 1
  m_CustomShadowLayers: 0
  m_ShadowLayerMask: 1
  m_LightCookieSize: {x: 1, y: 1}
  m_LightCookieOffset: {x: 0, y: 0}
--- !u!114 &443972531 stripped
MonoBehaviour:
  m_CorrespondingSourceObject: {fileID: 4560604872720201028, guid: bb33b70ef44c77d449fd845fae9e590f,
    type: 3}
  m_PrefabInstance: {fileID: 4560604871739211362}
  m_PrefabAsset: {fileID: 0}
  m_GameObject: {fileID: 0}
  m_Enabled: 1
  m_EditorHideFlags: 0
  m_Script: {fileID: 11500000, guid: 80939b02f119ff44e9bef5fa0f39cf72, type: 3}
  m_Name: 
  m_EditorClassIdentifier: 
--- !u!114 &443972533 stripped
MonoBehaviour:
  m_CorrespondingSourceObject: {fileID: 4560604872720201024, guid: bb33b70ef44c77d449fd845fae9e590f,
    type: 3}
  m_PrefabInstance: {fileID: 4560604871739211362}
  m_PrefabAsset: {fileID: 0}
  m_GameObject: {fileID: 0}
  m_Enabled: 1
  m_EditorHideFlags: 0
  m_Script: {fileID: 11500000, guid: de66f66b7eb71ce45baf8da4871ef551, type: 3}
  m_Name: 
  m_EditorClassIdentifier: 
--- !u!1001 &723752330
PrefabInstance:
  m_ObjectHideFlags: 0
  serializedVersion: 2
  m_Modification:
    m_TransformParent: {fileID: 0}
    m_Modifications:
    - target: {fileID: 4724365434764576890, guid: afef332a792ed5241a19d0f3f94cf389,
        type: 3}
      propertyPath: m_Name
      value: 'Transition '
      objectReference: {fileID: 0}
    - target: {fileID: 4724365434764576891, guid: afef332a792ed5241a19d0f3f94cf389,
        type: 3}
      propertyPath: m_RootOrder
      value: 7
      objectReference: {fileID: 0}
    - target: {fileID: 4724365434764576891, guid: afef332a792ed5241a19d0f3f94cf389,
        type: 3}
      propertyPath: m_LocalPosition.x
      value: 52.37
      objectReference: {fileID: 0}
    - target: {fileID: 4724365434764576891, guid: afef332a792ed5241a19d0f3f94cf389,
        type: 3}
      propertyPath: m_LocalPosition.y
      value: 5
      objectReference: {fileID: 0}
    - target: {fileID: 4724365434764576891, guid: afef332a792ed5241a19d0f3f94cf389,
        type: 3}
      propertyPath: m_LocalPosition.z
      value: -2.9335876
      objectReference: {fileID: 0}
    - target: {fileID: 4724365434764576891, guid: afef332a792ed5241a19d0f3f94cf389,
        type: 3}
      propertyPath: m_LocalRotation.w
      value: 1
      objectReference: {fileID: 0}
    - target: {fileID: 4724365434764576891, guid: afef332a792ed5241a19d0f3f94cf389,
        type: 3}
      propertyPath: m_LocalRotation.x
      value: 0
      objectReference: {fileID: 0}
    - target: {fileID: 4724365434764576891, guid: afef332a792ed5241a19d0f3f94cf389,
        type: 3}
      propertyPath: m_LocalRotation.y
      value: 0
      objectReference: {fileID: 0}
    - target: {fileID: 4724365434764576891, guid: afef332a792ed5241a19d0f3f94cf389,
        type: 3}
      propertyPath: m_LocalRotation.z
      value: 0
      objectReference: {fileID: 0}
    - target: {fileID: 4724365434764576891, guid: afef332a792ed5241a19d0f3f94cf389,
        type: 3}
      propertyPath: m_LocalEulerAnglesHint.x
      value: 0
      objectReference: {fileID: 0}
    - target: {fileID: 4724365434764576891, guid: afef332a792ed5241a19d0f3f94cf389,
        type: 3}
      propertyPath: m_LocalEulerAnglesHint.y
      value: 0
      objectReference: {fileID: 0}
    - target: {fileID: 4724365434764576891, guid: afef332a792ed5241a19d0f3f94cf389,
        type: 3}
      propertyPath: m_LocalEulerAnglesHint.z
      value: 0
      objectReference: {fileID: 0}
    m_RemovedComponents: []
  m_SourcePrefab: {fileID: 100100000, guid: afef332a792ed5241a19d0f3f94cf389, type: 3}
--- !u!1 &723752331 stripped
GameObject:
  m_CorrespondingSourceObject: {fileID: 4724365434764576890, guid: afef332a792ed5241a19d0f3f94cf389,
    type: 3}
  m_PrefabInstance: {fileID: 723752330}
  m_PrefabAsset: {fileID: 0}
--- !u!1 &786314846
GameObject:
  m_ObjectHideFlags: 0
  m_CorrespondingSourceObject: {fileID: 0}
  m_PrefabInstance: {fileID: 0}
  m_PrefabAsset: {fileID: 0}
  serializedVersion: 6
  m_Component:
  - component: {fileID: 786314849}
  - component: {fileID: 786314848}
  - component: {fileID: 786314847}
  m_Layer: 0
  m_Name: EventSystem
  m_TagString: Untagged
  m_Icon: {fileID: 0}
  m_NavMeshLayer: 0
  m_StaticEditorFlags: 0
  m_IsActive: 1
--- !u!114 &786314847
MonoBehaviour:
  m_ObjectHideFlags: 0
  m_CorrespondingSourceObject: {fileID: 0}
  m_PrefabInstance: {fileID: 0}
  m_PrefabAsset: {fileID: 0}
  m_GameObject: {fileID: 786314846}
  m_Enabled: 1
  m_EditorHideFlags: 0
  m_Script: {fileID: 11500000, guid: 4f231c4fb786f3946a6b90b886c48677, type: 3}
  m_Name: 
  m_EditorClassIdentifier: 
  m_SendPointerHoverToParent: 1
  m_HorizontalAxis: Horizontal
  m_VerticalAxis: Vertical
  m_SubmitButton: Submit
  m_CancelButton: Cancel
  m_InputActionsPerSecond: 10
  m_RepeatDelay: 0.5
  m_ForceModuleActive: 0
--- !u!114 &786314848
MonoBehaviour:
  m_ObjectHideFlags: 0
  m_CorrespondingSourceObject: {fileID: 0}
  m_PrefabInstance: {fileID: 0}
  m_PrefabAsset: {fileID: 0}
  m_GameObject: {fileID: 786314846}
  m_Enabled: 1
  m_EditorHideFlags: 0
  m_Script: {fileID: 11500000, guid: 76c392e42b5098c458856cdf6ecaaaa1, type: 3}
  m_Name: 
  m_EditorClassIdentifier: 
  m_FirstSelected: {fileID: 0}
  m_sendNavigationEvents: 1
  m_DragThreshold: 10
--- !u!4 &786314849
Transform:
  m_ObjectHideFlags: 0
  m_CorrespondingSourceObject: {fileID: 0}
  m_PrefabInstance: {fileID: 0}
  m_PrefabAsset: {fileID: 0}
  m_GameObject: {fileID: 786314846}
  m_LocalRotation: {x: -0, y: -0, z: -0, w: 1}
  m_LocalPosition: {x: -3.9692352, y: -0.14861691, z: 1.8425584}
  m_LocalScale: {x: 1, y: 1, z: 1}
  m_ConstrainProportionsScale: 0
  m_Children: []
  m_Father: {fileID: 340034149}
  m_RootOrder: 0
  m_LocalEulerAnglesHint: {x: 0, y: 0, z: 0}
--- !u!1001 &1583799017
PrefabInstance:
  m_ObjectHideFlags: 0
  serializedVersion: 2
  m_Modification:
    m_TransformParent: {fileID: 0}
    m_Modifications:
    - target: {fileID: 1889509521, guid: d7cf2d2561eabf34b96e790ba25e7ed3, type: 3}
      propertyPath: Abierta
      value: 0
      objectReference: {fileID: 0}
    - target: {fileID: 1889509521, guid: d7cf2d2561eabf34b96e790ba25e7ed3, type: 3}
      propertyPath: Transition
      value: 
      objectReference: {fileID: 723752331}
    - target: {fileID: 987068580462396480, guid: d7cf2d2561eabf34b96e790ba25e7ed3,
        type: 3}
      propertyPath: m_RootOrder
      value: 2
      objectReference: {fileID: 0}
    - target: {fileID: 987068580462396480, guid: d7cf2d2561eabf34b96e790ba25e7ed3,
        type: 3}
      propertyPath: m_LocalPosition.x
      value: 58.47742
      objectReference: {fileID: 0}
    - target: {fileID: 987068580462396480, guid: d7cf2d2561eabf34b96e790ba25e7ed3,
        type: 3}
      propertyPath: m_LocalPosition.y
      value: 2.48
      objectReference: {fileID: 0}
    - target: {fileID: 987068580462396480, guid: d7cf2d2561eabf34b96e790ba25e7ed3,
        type: 3}
      propertyPath: m_LocalPosition.z
      value: 1.8302035
      objectReference: {fileID: 0}
    - target: {fileID: 987068580462396480, guid: d7cf2d2561eabf34b96e790ba25e7ed3,
        type: 3}
      propertyPath: m_LocalRotation.w
      value: 1
      objectReference: {fileID: 0}
    - target: {fileID: 987068580462396480, guid: d7cf2d2561eabf34b96e790ba25e7ed3,
        type: 3}
      propertyPath: m_LocalRotation.x
      value: 0
      objectReference: {fileID: 0}
    - target: {fileID: 987068580462396480, guid: d7cf2d2561eabf34b96e790ba25e7ed3,
        type: 3}
      propertyPath: m_LocalRotation.y
      value: 0
      objectReference: {fileID: 0}
    - target: {fileID: 987068580462396480, guid: d7cf2d2561eabf34b96e790ba25e7ed3,
        type: 3}
      propertyPath: m_LocalRotation.z
      value: 0
      objectReference: {fileID: 0}
    - target: {fileID: 987068580462396480, guid: d7cf2d2561eabf34b96e790ba25e7ed3,
        type: 3}
      propertyPath: m_LocalEulerAnglesHint.x
      value: 0
      objectReference: {fileID: 0}
    - target: {fileID: 987068580462396480, guid: d7cf2d2561eabf34b96e790ba25e7ed3,
        type: 3}
      propertyPath: m_LocalEulerAnglesHint.y
      value: 0
      objectReference: {fileID: 0}
    - target: {fileID: 987068580462396480, guid: d7cf2d2561eabf34b96e790ba25e7ed3,
        type: 3}
      propertyPath: m_LocalEulerAnglesHint.z
      value: 0
      objectReference: {fileID: 0}
    - target: {fileID: 987068580462396481, guid: d7cf2d2561eabf34b96e790ba25e7ed3,
        type: 3}
      propertyPath: m_SortingOrder
      value: 1
      objectReference: {fileID: 0}
    - target: {fileID: 987068580462396482, guid: d7cf2d2561eabf34b96e790ba25e7ed3,
        type: 3}
      propertyPath: m_Name
      value: Door
      objectReference: {fileID: 0}
    m_RemovedComponents: []
  m_SourcePrefab: {fileID: 100100000, guid: d7cf2d2561eabf34b96e790ba25e7ed3, type: 3}
--- !u!1001 &1789815768
PrefabInstance:
  m_ObjectHideFlags: 0
  serializedVersion: 2
  m_Modification:
    m_TransformParent: {fileID: 0}
    m_Modifications:
    - target: {fileID: 7336194192126415472, guid: 8fe92b799076a274fa1fbc4a0c69eded,
        type: 3}
      propertyPath: m_RootOrder
      value: 0
      objectReference: {fileID: 0}
    - target: {fileID: 7336194192126415472, guid: 8fe92b799076a274fa1fbc4a0c69eded,
        type: 3}
      propertyPath: m_LocalPosition.x
      value: 658.6444
      objectReference: {fileID: 0}
    - target: {fileID: 7336194192126415472, guid: 8fe92b799076a274fa1fbc4a0c69eded,
        type: 3}
      propertyPath: m_LocalPosition.y
      value: 258.08942
      objectReference: {fileID: 0}
    - target: {fileID: 7336194192126415472, guid: 8fe92b799076a274fa1fbc4a0c69eded,
        type: 3}
      propertyPath: m_LocalPosition.z
      value: -1.7349644
      objectReference: {fileID: 0}
    - target: {fileID: 7336194192126415472, guid: 8fe92b799076a274fa1fbc4a0c69eded,
        type: 3}
      propertyPath: m_LocalRotation.w
      value: 1
      objectReference: {fileID: 0}
    - target: {fileID: 7336194192126415472, guid: 8fe92b799076a274fa1fbc4a0c69eded,
        type: 3}
      propertyPath: m_LocalRotation.x
      value: 0
      objectReference: {fileID: 0}
    - target: {fileID: 7336194192126415472, guid: 8fe92b799076a274fa1fbc4a0c69eded,
        type: 3}
      propertyPath: m_LocalRotation.y
      value: 0
      objectReference: {fileID: 0}
    - target: {fileID: 7336194192126415472, guid: 8fe92b799076a274fa1fbc4a0c69eded,
        type: 3}
      propertyPath: m_LocalRotation.z
      value: 0
      objectReference: {fileID: 0}
    - target: {fileID: 7336194192126415472, guid: 8fe92b799076a274fa1fbc4a0c69eded,
        type: 3}
      propertyPath: m_LocalEulerAnglesHint.x
      value: 0
      objectReference: {fileID: 0}
    - target: {fileID: 7336194192126415472, guid: 8fe92b799076a274fa1fbc4a0c69eded,
        type: 3}
      propertyPath: m_LocalEulerAnglesHint.y
      value: 0
      objectReference: {fileID: 0}
    - target: {fileID: 7336194192126415472, guid: 8fe92b799076a274fa1fbc4a0c69eded,
        type: 3}
      propertyPath: m_LocalEulerAnglesHint.z
      value: 0
      objectReference: {fileID: 0}
    - target: {fileID: 7336194192126415474, guid: 8fe92b799076a274fa1fbc4a0c69eded,
        type: 3}
      propertyPath: m_Name
      value: Global Volume
      objectReference: {fileID: 0}
    m_RemovedComponents: []
  m_SourcePrefab: {fileID: 100100000, guid: 8fe92b799076a274fa1fbc4a0c69eded, type: 3}
--- !u!1001 &1892762162
PrefabInstance:
  m_ObjectHideFlags: 0
  serializedVersion: 2
  m_Modification:
    m_TransformParent: {fileID: 0}
    m_Modifications:
    - target: {fileID: 8066334052335760776, guid: df660135fcb1b4c40b25cfb250304e79,
        type: 3}
      propertyPath: m_SortingOrder
      value: 5
      objectReference: {fileID: 0}
    - target: {fileID: 8066334052335760780, guid: df660135fcb1b4c40b25cfb250304e79,
        type: 3}
      propertyPath: m_Name
      value: Jugador
      objectReference: {fileID: 0}
    - target: {fileID: 8066334052335760823, guid: df660135fcb1b4c40b25cfb250304e79,
        type: 3}
      propertyPath: m_RootOrder
      value: 4
      objectReference: {fileID: 0}
    - target: {fileID: 8066334052335760823, guid: df660135fcb1b4c40b25cfb250304e79,
        type: 3}
      propertyPath: m_LocalPosition.x
      value: 46.9
      objectReference: {fileID: 0}
    - target: {fileID: 8066334052335760823, guid: df660135fcb1b4c40b25cfb250304e79,
        type: 3}
      propertyPath: m_LocalPosition.y
      value: 2.944751
      objectReference: {fileID: 0}
    - target: {fileID: 8066334052335760823, guid: df660135fcb1b4c40b25cfb250304e79,
        type: 3}
      propertyPath: m_LocalPosition.z
      value: -1
      objectReference: {fileID: 0}
    - target: {fileID: 8066334052335760823, guid: df660135fcb1b4c40b25cfb250304e79,
        type: 3}
      propertyPath: m_LocalRotation.w
      value: 1
      objectReference: {fileID: 0}
    - target: {fileID: 8066334052335760823, guid: df660135fcb1b4c40b25cfb250304e79,
        type: 3}
      propertyPath: m_LocalRotation.x
      value: 0
      objectReference: {fileID: 0}
    - target: {fileID: 8066334052335760823, guid: df660135fcb1b4c40b25cfb250304e79,
        type: 3}
      propertyPath: m_LocalRotation.y
      value: 0
      objectReference: {fileID: 0}
    - target: {fileID: 8066334052335760823, guid: df660135fcb1b4c40b25cfb250304e79,
        type: 3}
      propertyPath: m_LocalRotation.z
      value: 0
      objectReference: {fileID: 0}
    - target: {fileID: 8066334052335760823, guid: df660135fcb1b4c40b25cfb250304e79,
        type: 3}
      propertyPath: m_LocalEulerAnglesHint.x
      value: 0
      objectReference: {fileID: 0}
    - target: {fileID: 8066334052335760823, guid: df660135fcb1b4c40b25cfb250304e79,
        type: 3}
      propertyPath: m_LocalEulerAnglesHint.y
      value: 0
      objectReference: {fileID: 0}
    - target: {fileID: 8066334052335760823, guid: df660135fcb1b4c40b25cfb250304e79,
        type: 3}
      propertyPath: m_LocalEulerAnglesHint.z
      value: 0
      objectReference: {fileID: 0}
    m_RemovedComponents: []
  m_SourcePrefab: {fileID: 100100000, guid: df660135fcb1b4c40b25cfb250304e79, type: 3}
--- !u!1001 &1971232046
PrefabInstance:
  m_ObjectHideFlags: 0
  serializedVersion: 2
  m_Modification:
    m_TransformParent: {fileID: 0}
    m_Modifications:
    - target: {fileID: 5637562779549258295, guid: 487c37e2f687f044cae4b30bcc8720ba,
        type: 3}
      propertyPath: m_LocalPosition.y
      value: 3.2268968
      objectReference: {fileID: 0}
    - target: {fileID: 6608196367159568786, guid: 487c37e2f687f044cae4b30bcc8720ba,
        type: 3}
      propertyPath: m_RootOrder
      value: 1
      objectReference: {fileID: 0}
    - target: {fileID: 6608196367159568786, guid: 487c37e2f687f044cae4b30bcc8720ba,
        type: 3}
      propertyPath: m_LocalPosition.x
      value: 50.28146
      objectReference: {fileID: 0}
    - target: {fileID: 6608196367159568786, guid: 487c37e2f687f044cae4b30bcc8720ba,
        type: 3}
      propertyPath: m_LocalPosition.y
      value: 7.182683
      objectReference: {fileID: 0}
    - target: {fileID: 6608196367159568786, guid: 487c37e2f687f044cae4b30bcc8720ba,
        type: 3}
      propertyPath: m_LocalPosition.z
      value: -3.2640336
      objectReference: {fileID: 0}
    - target: {fileID: 6608196367159568786, guid: 487c37e2f687f044cae4b30bcc8720ba,
        type: 3}
      propertyPath: m_LocalRotation.w
      value: 1
      objectReference: {fileID: 0}
    - target: {fileID: 6608196367159568786, guid: 487c37e2f687f044cae4b30bcc8720ba,
        type: 3}
      propertyPath: m_LocalRotation.x
      value: 0
      objectReference: {fileID: 0}
    - target: {fileID: 6608196367159568786, guid: 487c37e2f687f044cae4b30bcc8720ba,
        type: 3}
      propertyPath: m_LocalRotation.y
      value: 0
      objectReference: {fileID: 0}
    - target: {fileID: 6608196367159568786, guid: 487c37e2f687f044cae4b30bcc8720ba,
        type: 3}
      propertyPath: m_LocalRotation.z
      value: 0
      objectReference: {fileID: 0}
    - target: {fileID: 6608196367159568786, guid: 487c37e2f687f044cae4b30bcc8720ba,
        type: 3}
      propertyPath: m_LocalEulerAnglesHint.x
      value: 0
      objectReference: {fileID: 0}
    - target: {fileID: 6608196367159568786, guid: 487c37e2f687f044cae4b30bcc8720ba,
        type: 3}
      propertyPath: m_LocalEulerAnglesHint.y
      value: 0
      objectReference: {fileID: 0}
    - target: {fileID: 6608196367159568786, guid: 487c37e2f687f044cae4b30bcc8720ba,
        type: 3}
      propertyPath: m_LocalEulerAnglesHint.z
      value: 0
      objectReference: {fileID: 0}
    - target: {fileID: 7537731421236490391, guid: 487c37e2f687f044cae4b30bcc8720ba,
        type: 3}
      propertyPath: m_Name
      value: Escenario Grids y Luces
      objectReference: {fileID: 0}
    m_RemovedComponents: []
  m_SourcePrefab: {fileID: 100100000, guid: 487c37e2f687f044cae4b30bcc8720ba, type: 3}
--- !u!1 &2122922198
GameObject:
  m_ObjectHideFlags: 0
  m_CorrespondingSourceObject: {fileID: 0}
  m_PrefabInstance: {fileID: 0}
  m_PrefabAsset: {fileID: 0}
  serializedVersion: 6
  m_Component:
  - component: {fileID: 2122922199}
  m_Layer: 0
  m_Name: ---MAP---
  m_TagString: Untagged
  m_Icon: {fileID: 0}
  m_NavMeshLayer: 0
  m_StaticEditorFlags: 0
  m_IsActive: 1
--- !u!4 &2122922199
Transform:
  m_ObjectHideFlags: 0
  m_CorrespondingSourceObject: {fileID: 0}
  m_PrefabInstance: {fileID: 0}
  m_PrefabAsset: {fileID: 0}
  m_GameObject: {fileID: 2122922198}
  m_LocalRotation: {x: 0, y: 0, z: 0, w: 1}
  m_LocalPosition: {x: 3.6081536, y: 0.30363655, z: -1.8302035}
  m_LocalScale: {x: 1, y: 1, z: 1}
  m_ConstrainProportionsScale: 0
  m_Children:
  - {fileID: 410087041}
  m_Father: {fileID: 0}
  m_RootOrder: 5
  m_LocalEulerAnglesHint: {x: 0, y: 0, z: 0}
--- !u!1001 &4560604871739211362
PrefabInstance:
  m_ObjectHideFlags: 0
  serializedVersion: 2
  m_Modification:
    m_TransformParent: {fileID: 0}
    m_Modifications:
    - target: {fileID: 4560604872720201025, guid: bb33b70ef44c77d449fd845fae9e590f,
        type: 3}
      propertyPath: m_RootOrder
      value: 3
      objectReference: {fileID: 0}
    - target: {fileID: 4560604872720201025, guid: bb33b70ef44c77d449fd845fae9e590f,
        type: 3}
      propertyPath: m_LocalPosition.x
      value: 2.834584
      objectReference: {fileID: 0}
    - target: {fileID: 4560604872720201025, guid: bb33b70ef44c77d449fd845fae9e590f,
        type: 3}
      propertyPath: m_LocalPosition.y
      value: 4.164821
      objectReference: {fileID: 0}
    - target: {fileID: 4560604872720201025, guid: bb33b70ef44c77d449fd845fae9e590f,
        type: 3}
      propertyPath: m_LocalPosition.z
      value: 7.959645
      objectReference: {fileID: 0}
    - target: {fileID: 4560604872720201025, guid: bb33b70ef44c77d449fd845fae9e590f,
        type: 3}
      propertyPath: m_LocalRotation.w
      value: 1
      objectReference: {fileID: 0}
    - target: {fileID: 4560604872720201025, guid: bb33b70ef44c77d449fd845fae9e590f,
        type: 3}
      propertyPath: m_LocalRotation.x
      value: -0
      objectReference: {fileID: 0}
    - target: {fileID: 4560604872720201025, guid: bb33b70ef44c77d449fd845fae9e590f,
        type: 3}
      propertyPath: m_LocalRotation.y
      value: -0
      objectReference: {fileID: 0}
    - target: {fileID: 4560604872720201025, guid: bb33b70ef44c77d449fd845fae9e590f,
        type: 3}
      propertyPath: m_LocalRotation.z
      value: -0
      objectReference: {fileID: 0}
    - target: {fileID: 4560604872720201025, guid: bb33b70ef44c77d449fd845fae9e590f,
        type: 3}
      propertyPath: m_LocalEulerAnglesHint.x
      value: 0
      objectReference: {fileID: 0}
    - target: {fileID: 4560604872720201025, guid: bb33b70ef44c77d449fd845fae9e590f,
        type: 3}
      propertyPath: m_LocalEulerAnglesHint.y
      value: 0
      objectReference: {fileID: 0}
    - target: {fileID: 4560604872720201025, guid: bb33b70ef44c77d449fd845fae9e590f,
        type: 3}
      propertyPath: m_LocalEulerAnglesHint.z
      value: 0
      objectReference: {fileID: 0}
    - target: {fileID: 4560604872720201027, guid: bb33b70ef44c77d449fd845fae9e590f,
        type: 3}
      propertyPath: m_Name
      value: GameManager
      objectReference: {fileID: 0}
    - target: {fileID: 4560604872720201028, guid: bb33b70ef44c77d449fd845fae9e590f,
        type: 3}
      propertyPath: Can_F5
      value: 1
      objectReference: {fileID: 0}
    - target: {fileID: 4560604872720201028, guid: bb33b70ef44c77d449fd845fae9e590f,
        type: 3}
      propertyPath: Can_Tab
      value: 1
      objectReference: {fileID: 0}
    - target: {fileID: 4560604872720201028, guid: bb33b70ef44c77d449fd845fae9e590f,
        type: 3}
      propertyPath: Can_Zoom
      value: 1
      objectReference: {fileID: 0}
    - target: {fileID: 4560604872720201028, guid: bb33b70ef44c77d449fd845fae9e590f,
        type: 3}
      propertyPath: Can_AltF4
      value: 1
      objectReference: {fileID: 0}
    - target: {fileID: 4560604872720201028, guid: bb33b70ef44c77d449fd845fae9e590f,
        type: 3}
      propertyPath: Can_Copiar
      value: 1
      objectReference: {fileID: 0}
    - target: {fileID: 4560604872720201028, guid: bb33b70ef44c77d449fd845fae9e590f,
        type: 3}
      propertyPath: Can_Cortar
      value: 1
      objectReference: {fileID: 0}
    - target: {fileID: 4560604872720201028, guid: bb33b70ef44c77d449fd845fae9e590f,
        type: 3}
      propertyPath: Can_Delete
      value: 1
      objectReference: {fileID: 0}
    - target: {fileID: 4560604872720201028, guid: bb33b70ef44c77d449fd845fae9e590f,
        type: 3}
      propertyPath: Can_Control_A
      value: 1
      objectReference: {fileID: 0}
    - target: {fileID: 4560604872720201028, guid: bb33b70ef44c77d449fd845fae9e590f,
        type: 3}
      propertyPath: Can_Control_D
      value: 1
      objectReference: {fileID: 0}
    - target: {fileID: 4560604872720201028, guid: bb33b70ef44c77d449fd845fae9e590f,
        type: 3}
      propertyPath: Can_Control_F
      value: 1
      objectReference: {fileID: 0}
    - target: {fileID: 4560604872720201028, guid: bb33b70ef44c77d449fd845fae9e590f,
        type: 3}
      propertyPath: Can_Control_O
      value: 1
      objectReference: {fileID: 0}
    - target: {fileID: 4560604872720201028, guid: bb33b70ef44c77d449fd845fae9e590f,
        type: 3}
      propertyPath: Can_Control_Z
      value: 1
      objectReference: {fileID: 0}
    m_RemovedComponents: []
  m_SourcePrefab: {fileID: 100100000, guid: bb33b70ef44c77d449fd845fae9e590f, type: 3}
--- !u!1001 &5191438124143949169
PrefabInstance:
  m_ObjectHideFlags: 0
  serializedVersion: 2
  m_Modification:
    m_TransformParent: {fileID: 340034149}
    m_Modifications:
    - target: {fileID: 866798268, guid: 87828d32ba1117d448b2dff47759daa4, type: 3}
      propertyPath: m_OnSelect.m_PersistentCalls.m_Calls.Array.size
      value: 1
      objectReference: {fileID: 0}
    - target: {fileID: 866798268, guid: 87828d32ba1117d448b2dff47759daa4, type: 3}
      propertyPath: m_OnDeselect.m_PersistentCalls.m_Calls.Array.size
      value: 1
      objectReference: {fileID: 0}
    - target: {fileID: 866798268, guid: 87828d32ba1117d448b2dff47759daa4, type: 3}
      propertyPath: m_OnValueChanged.m_PersistentCalls.m_Calls.Array.size
      value: 1
      objectReference: {fileID: 0}
    - target: {fileID: 866798268, guid: 87828d32ba1117d448b2dff47759daa4, type: 3}
      propertyPath: m_OnSelect.m_PersistentCalls.m_Calls.Array.data[0].m_Mode
      value: 6
      objectReference: {fileID: 0}
    - target: {fileID: 866798268, guid: 87828d32ba1117d448b2dff47759daa4, type: 3}
      propertyPath: m_OnDeselect.m_PersistentCalls.m_Calls.Array.data[0].m_Mode
      value: 6
      objectReference: {fileID: 0}
    - target: {fileID: 866798268, guid: 87828d32ba1117d448b2dff47759daa4, type: 3}
      propertyPath: m_OnSelect.m_PersistentCalls.m_Calls.Array.data[0].m_Target
      value: 
      objectReference: {fileID: 443972533}
    - target: {fileID: 866798268, guid: 87828d32ba1117d448b2dff47759daa4, type: 3}
      propertyPath: m_OnDeselect.m_PersistentCalls.m_Calls.Array.data[0].m_Target
      value: 
      objectReference: {fileID: 443972533}
    - target: {fileID: 866798268, guid: 87828d32ba1117d448b2dff47759daa4, type: 3}
      propertyPath: m_OnSelect.m_PersistentCalls.m_Calls.Array.data[0].m_CallState
      value: 2
      objectReference: {fileID: 0}
    - target: {fileID: 866798268, guid: 87828d32ba1117d448b2dff47759daa4, type: 3}
      propertyPath: m_OnSelect.m_PersistentCalls.m_Calls.Array.data[0].m_MethodName
      value: MovimientoJugador
      objectReference: {fileID: 0}
    - target: {fileID: 866798268, guid: 87828d32ba1117d448b2dff47759daa4, type: 3}
      propertyPath: m_OnValueChanged.m_PersistentCalls.m_Calls.Array.data[0].m_Mode
      value: 1
      objectReference: {fileID: 0}
    - target: {fileID: 866798268, guid: 87828d32ba1117d448b2dff47759daa4, type: 3}
      propertyPath: m_OnDeselect.m_PersistentCalls.m_Calls.Array.data[0].m_CallState
      value: 2
      objectReference: {fileID: 0}
    - target: {fileID: 866798268, guid: 87828d32ba1117d448b2dff47759daa4, type: 3}
      propertyPath: m_OnDeselect.m_PersistentCalls.m_Calls.Array.data[0].m_MethodName
      value: MovimientoJugador
      objectReference: {fileID: 0}
    - target: {fileID: 866798268, guid: 87828d32ba1117d448b2dff47759daa4, type: 3}
      propertyPath: m_OnValueChanged.m_PersistentCalls.m_Calls.Array.data[0].m_Target
      value: 
      objectReference: {fileID: 443972531}
    - target: {fileID: 866798268, guid: 87828d32ba1117d448b2dff47759daa4, type: 3}
      propertyPath: m_OnValueChanged.m_PersistentCalls.m_Calls.Array.data[0].m_CallState
      value: 2
      objectReference: {fileID: 0}
    - target: {fileID: 866798268, guid: 87828d32ba1117d448b2dff47759daa4, type: 3}
      propertyPath: m_OnValueChanged.m_PersistentCalls.m_Calls.Array.data[0].m_MethodName
      value: BuscarControlF
      objectReference: {fileID: 0}
    - target: {fileID: 866798268, guid: 87828d32ba1117d448b2dff47759daa4, type: 3}
      propertyPath: m_OnSelect.m_PersistentCalls.m_Calls.Array.data[0].m_TargetAssemblyTypeName
      value: GameManager, Assembly-CSharp
      objectReference: {fileID: 0}
    - target: {fileID: 866798268, guid: 87828d32ba1117d448b2dff47759daa4, type: 3}
      propertyPath: m_OnDeselect.m_PersistentCalls.m_Calls.Array.data[0].m_TargetAssemblyTypeName
      value: GameManager, Assembly-CSharp
      objectReference: {fileID: 0}
    - target: {fileID: 866798268, guid: 87828d32ba1117d448b2dff47759daa4, type: 3}
      propertyPath: m_OnSelect.m_PersistentCalls.m_Calls.Array.data[0].m_Arguments.m_BoolArgument
      value: 0
      objectReference: {fileID: 0}
    - target: {fileID: 866798268, guid: 87828d32ba1117d448b2dff47759daa4, type: 3}
      propertyPath: m_OnDeselect.m_PersistentCalls.m_Calls.Array.data[0].m_Arguments.m_BoolArgument
      value: 1
      objectReference: {fileID: 0}
    - target: {fileID: 866798268, guid: 87828d32ba1117d448b2dff47759daa4, type: 3}
      propertyPath: m_OnValueChanged.m_PersistentCalls.m_Calls.Array.data[0].m_TargetAssemblyTypeName
      value: ShortcutManager, Assembly-CSharp
      objectReference: {fileID: 0}
    - target: {fileID: 866798268, guid: 87828d32ba1117d448b2dff47759daa4, type: 3}
      propertyPath: m_OnSelect.m_PersistentCalls.m_Calls.Array.data[0].m_Arguments.m_ObjectArgumentAssemblyTypeName
      value: UnityEngine.Object, UnityEngine
      objectReference: {fileID: 0}
    - target: {fileID: 866798268, guid: 87828d32ba1117d448b2dff47759daa4, type: 3}
      propertyPath: m_OnDeselect.m_PersistentCalls.m_Calls.Array.data[0].m_Arguments.m_ObjectArgumentAssemblyTypeName
      value: UnityEngine.Object, UnityEngine
      objectReference: {fileID: 0}
    - target: {fileID: 866798268, guid: 87828d32ba1117d448b2dff47759daa4, type: 3}
      propertyPath: m_OnValueChanged.m_PersistentCalls.m_Calls.Array.data[0].m_Arguments.m_ObjectArgumentAssemblyTypeName
      value: UnityEngine.Object, UnityEngine
      objectReference: {fileID: 0}
    - target: {fileID: 1476775944, guid: 87828d32ba1117d448b2dff47759daa4, type: 3}
      propertyPath: m_OnClick.m_PersistentCalls.m_Calls.Array.data[0].m_Target
      value: 
      objectReference: {fileID: 443972531}
    - target: {fileID: 1728422380, guid: 87828d32ba1117d448b2dff47759daa4, type: 3}
      propertyPath: m_OnClick.m_PersistentCalls.m_Calls.Array.data[0].m_Target
      value: 
      objectReference: {fileID: 443972531}
    - target: {fileID: 2045795131, guid: 87828d32ba1117d448b2dff47759daa4, type: 3}
      propertyPath: m_OnClick.m_PersistentCalls.m_Calls.Array.data[0].m_Target
      value: 
      objectReference: {fileID: 443972531}
    - target: {fileID: 5191438123925887784, guid: 87828d32ba1117d448b2dff47759daa4,
        type: 3}
      propertyPath: m_Name
      value: Canvas
      objectReference: {fileID: 0}
    - target: {fileID: 5191438123925887784, guid: 87828d32ba1117d448b2dff47759daa4,
        type: 3}
      propertyPath: m_IsActive
      value: 1
      objectReference: {fileID: 0}
    - target: {fileID: 5191438123925887788, guid: 87828d32ba1117d448b2dff47759daa4,
        type: 3}
      propertyPath: m_Pivot.x
      value: 0
      objectReference: {fileID: 0}
    - target: {fileID: 5191438123925887788, guid: 87828d32ba1117d448b2dff47759daa4,
        type: 3}
      propertyPath: m_Pivot.y
      value: 0
      objectReference: {fileID: 0}
    - target: {fileID: 5191438123925887788, guid: 87828d32ba1117d448b2dff47759daa4,
        type: 3}
      propertyPath: m_RootOrder
      value: 1
      objectReference: {fileID: 0}
    - target: {fileID: 5191438123925887788, guid: 87828d32ba1117d448b2dff47759daa4,
        type: 3}
      propertyPath: m_AnchorMax.x
      value: 0
      objectReference: {fileID: 0}
    - target: {fileID: 5191438123925887788, guid: 87828d32ba1117d448b2dff47759daa4,
        type: 3}
      propertyPath: m_AnchorMax.y
      value: 0
      objectReference: {fileID: 0}
    - target: {fileID: 5191438123925887788, guid: 87828d32ba1117d448b2dff47759daa4,
        type: 3}
      propertyPath: m_AnchorMin.x
      value: 0
      objectReference: {fileID: 0}
    - target: {fileID: 5191438123925887788, guid: 87828d32ba1117d448b2dff47759daa4,
        type: 3}
      propertyPath: m_AnchorMin.y
      value: 0
      objectReference: {fileID: 0}
    - target: {fileID: 5191438123925887788, guid: 87828d32ba1117d448b2dff47759daa4,
        type: 3}
      propertyPath: m_SizeDelta.x
      value: 0
      objectReference: {fileID: 0}
    - target: {fileID: 5191438123925887788, guid: 87828d32ba1117d448b2dff47759daa4,
        type: 3}
      propertyPath: m_SizeDelta.y
      value: 0
      objectReference: {fileID: 0}
    - target: {fileID: 5191438123925887788, guid: 87828d32ba1117d448b2dff47759daa4,
        type: 3}
      propertyPath: m_LocalPosition.x
      value: 0
      objectReference: {fileID: 0}
    - target: {fileID: 5191438123925887788, guid: 87828d32ba1117d448b2dff47759daa4,
        type: 3}
      propertyPath: m_LocalPosition.y
      value: 0
      objectReference: {fileID: 0}
    - target: {fileID: 5191438123925887788, guid: 87828d32ba1117d448b2dff47759daa4,
        type: 3}
      propertyPath: m_LocalPosition.z
      value: 0
      objectReference: {fileID: 0}
    - target: {fileID: 5191438123925887788, guid: 87828d32ba1117d448b2dff47759daa4,
        type: 3}
      propertyPath: m_LocalRotation.w
      value: 1
      objectReference: {fileID: 0}
    - target: {fileID: 5191438123925887788, guid: 87828d32ba1117d448b2dff47759daa4,
        type: 3}
      propertyPath: m_LocalRotation.x
      value: 0
      objectReference: {fileID: 0}
    - target: {fileID: 5191438123925887788, guid: 87828d32ba1117d448b2dff47759daa4,
        type: 3}
      propertyPath: m_LocalRotation.y
      value: 0
      objectReference: {fileID: 0}
    - target: {fileID: 5191438123925887788, guid: 87828d32ba1117d448b2dff47759daa4,
        type: 3}
      propertyPath: m_LocalRotation.z
      value: 0
      objectReference: {fileID: 0}
    - target: {fileID: 5191438123925887788, guid: 87828d32ba1117d448b2dff47759daa4,
        type: 3}
      propertyPath: m_AnchoredPosition.x
      value: 0
      objectReference: {fileID: 0}
    - target: {fileID: 5191438123925887788, guid: 87828d32ba1117d448b2dff47759daa4,
        type: 3}
      propertyPath: m_AnchoredPosition.y
      value: 0
      objectReference: {fileID: 0}
    - target: {fileID: 5191438123925887788, guid: 87828d32ba1117d448b2dff47759daa4,
        type: 3}
      propertyPath: m_LocalEulerAnglesHint.x
      value: 0
      objectReference: {fileID: 0}
    - target: {fileID: 5191438123925887788, guid: 87828d32ba1117d448b2dff47759daa4,
        type: 3}
      propertyPath: m_LocalEulerAnglesHint.y
      value: 0
      objectReference: {fileID: 0}
    - target: {fileID: 5191438123925887788, guid: 87828d32ba1117d448b2dff47759daa4,
        type: 3}
      propertyPath: m_LocalEulerAnglesHint.z
      value: 0
      objectReference: {fileID: 0}
    - target: {fileID: 5191438123925887789, guid: 87828d32ba1117d448b2dff47759daa4,
        type: 3}
      propertyPath: m_SortingOrder
      value: 2
      objectReference: {fileID: 0}
    m_RemovedComponents: []
  m_SourcePrefab: {fileID: 100100000, guid: 87828d32ba1117d448b2dff47759daa4, type: 3}
