%YAML 1.1
%TAG !u! tag:unity3d.com,2011:
--- !u!1 &97068984098010839
GameObject:
  m_ObjectHideFlags: 0
  m_CorrespondingSourceObject: {fileID: 0}
  m_PrefabInstance: {fileID: 0}
  m_PrefabAsset: {fileID: 0}
  serializedVersion: 6
  m_Component:
  - component: {fileID: 7590046779815571020}
  - component: {fileID: 6684366098509717196}
  m_Layer: 0
  m_Name: fondo nuevisimo
  m_TagString: Untagged
  m_Icon: {fileID: 0}
  m_NavMeshLayer: 0
  m_StaticEditorFlags: 0
  m_IsActive: 1
--- !u!4 &7590046779815571020
Transform:
  m_ObjectHideFlags: 0
  m_CorrespondingSourceObject: {fileID: 0}
  m_PrefabInstance: {fileID: 0}
  m_PrefabAsset: {fileID: 0}
  m_GameObject: {fileID: 97068984098010839}
  m_LocalRotation: {x: 0, y: 0, z: 0, w: 1}
  m_LocalPosition: {x: 0, y: 0, z: 0}
  m_LocalScale: {x: 1, y: 1, z: 1}
  m_ConstrainProportionsScale: 0
  m_Children:
  - {fileID: 3613810087615385110}
  m_Father: {fileID: 0}
  m_RootOrder: 0
  m_LocalEulerAnglesHint: {x: 0, y: 0, z: 0}
--- !u!156049354 &6684366098509717196
Grid:
  m_ObjectHideFlags: 0
  m_CorrespondingSourceObject: {fileID: 0}
  m_PrefabInstance: {fileID: 0}
  m_PrefabAsset: {fileID: 0}
  m_GameObject: {fileID: 97068984098010839}
  m_Enabled: 1
  m_CellSize: {x: 1, y: 1, z: 0}
  m_CellGap: {x: 0, y: 0, z: 0}
  m_CellLayout: 0
  m_CellSwizzle: 0
--- !u!1 &7050805474689081089
GameObject:
  m_ObjectHideFlags: 0
  m_CorrespondingSourceObject: {fileID: 0}
  m_PrefabInstance: {fileID: 0}
  m_PrefabAsset: {fileID: 0}
  serializedVersion: 6
  m_Component:
  - component: {fileID: 3613810087615385110}
  - component: {fileID: 1444335317531118086}
  - component: {fileID: 2699068827340904202}
  m_Layer: 0
  m_Name: Layer1
  m_TagString: Untagged
  m_Icon: {fileID: 0}
  m_NavMeshLayer: 0
  m_StaticEditorFlags: 0
  m_IsActive: 1
--- !u!4 &3613810087615385110
Transform:
  m_ObjectHideFlags: 0
  m_CorrespondingSourceObject: {fileID: 0}
  m_PrefabInstance: {fileID: 0}
  m_PrefabAsset: {fileID: 0}
  m_GameObject: {fileID: 7050805474689081089}
  m_LocalRotation: {x: -0, y: -0, z: -0, w: 1}
  m_LocalPosition: {x: 0, y: 0, z: 0}
  m_LocalScale: {x: 1, y: 1, z: 1}
  m_ConstrainProportionsScale: 0
  m_Children: []
  m_Father: {fileID: 7590046779815571020}
  m_RootOrder: 0
  m_LocalEulerAnglesHint: {x: 0, y: 0, z: 0}
--- !u!1839735485 &1444335317531118086
Tilemap:
  m_ObjectHideFlags: 0
  m_CorrespondingSourceObject: {fileID: 0}
  m_PrefabInstance: {fileID: 0}
  m_PrefabAsset: {fileID: 0}
  m_GameObject: {fileID: 7050805474689081089}
  m_Enabled: 1
  m_Tiles:
  - first: {x: -2, y: -4, z: 0}
    second:
      serializedVersion: 2
      m_TileIndex: 30
      m_TileSpriteIndex: 30
      m_TileMatrixIndex: 0
      m_TileColorIndex: 0
      m_TileObjectToInstantiateIndex: 65535
      dummyAlignment: 0
      m_AllTileFlags: 1073741825
  - first: {x: -1, y: -4, z: 0}
    second:
      serializedVersion: 2
      m_TileIndex: 31
      m_TileSpriteIndex: 31
      m_TileMatrixIndex: 0
      m_TileColorIndex: 0
      m_TileObjectToInstantiateIndex: 65535
      dummyAlignment: 0
      m_AllTileFlags: 1073741825
  - first: {x: 0, y: -4, z: 0}
    second:
      serializedVersion: 2
      m_TileIndex: 32
      m_TileSpriteIndex: 32
      m_TileMatrixIndex: 0
      m_TileColorIndex: 0
      m_TileObjectToInstantiateIndex: 65535
      dummyAlignment: 0
      m_AllTileFlags: 1073741825
  - first: {x: 1, y: -4, z: 0}
    second:
      serializedVersion: 2
      m_TileIndex: 33
      m_TileSpriteIndex: 33
      m_TileMatrixIndex: 0
      m_TileColorIndex: 0
      m_TileObjectToInstantiateIndex: 65535
      dummyAlignment: 0
      m_AllTileFlags: 1073741825
  - first: {x: 2, y: -4, z: 0}
    second:
      serializedVersion: 2
      m_TileIndex: 34
      m_TileSpriteIndex: 34
      m_TileMatrixIndex: 0
      m_TileColorIndex: 0
      m_TileObjectToInstantiateIndex: 65535
      dummyAlignment: 0
      m_AllTileFlags: 1073741825
  - first: {x: 3, y: -4, z: 0}
    second:
      serializedVersion: 2
      m_TileIndex: 35
      m_TileSpriteIndex: 35
      m_TileMatrixIndex: 0
      m_TileColorIndex: 0
      m_TileObjectToInstantiateIndex: 65535
      dummyAlignment: 0
      m_AllTileFlags: 1073741825
  - first: {x: -2, y: -3, z: 0}
    second:
      serializedVersion: 2
      m_TileIndex: 24
      m_TileSpriteIndex: 24
      m_TileMatrixIndex: 0
      m_TileColorIndex: 0
      m_TileObjectToInstantiateIndex: 65535
      dummyAlignment: 0
      m_AllTileFlags: 1073741825
  - first: {x: -1, y: -3, z: 0}
    second:
      serializedVersion: 2
      m_TileIndex: 25
      m_TileSpriteIndex: 25
      m_TileMatrixIndex: 0
      m_TileColorIndex: 0
      m_TileObjectToInstantiateIndex: 65535
      dummyAlignment: 0
      m_AllTileFlags: 1073741825
  - first: {x: 0, y: -3, z: 0}
    second:
      serializedVersion: 2
      m_TileIndex: 26
      m_TileSpriteIndex: 26
      m_TileMatrixIndex: 0
      m_TileColorIndex: 0
      m_TileObjectToInstantiateIndex: 65535
      dummyAlignment: 0
      m_AllTileFlags: 1073741825
  - first: {x: 1, y: -3, z: 0}
    second:
      serializedVersion: 2
      m_TileIndex: 27
      m_TileSpriteIndex: 27
      m_TileMatrixIndex: 0
      m_TileColorIndex: 0
      m_TileObjectToInstantiateIndex: 65535
      dummyAlignment: 0
      m_AllTileFlags: 1073741825
  - first: {x: 2, y: -3, z: 0}
    second:
      serializedVersion: 2
      m_TileIndex: 28
      m_TileSpriteIndex: 28
      m_TileMatrixIndex: 0
      m_TileColorIndex: 0
      m_TileObjectToInstantiateIndex: 65535
      dummyAlignment: 0
      m_AllTileFlags: 1073741825
  - first: {x: 3, y: -3, z: 0}
    second:
      serializedVersion: 2
      m_TileIndex: 29
      m_TileSpriteIndex: 29
      m_TileMatrixIndex: 0
      m_TileColorIndex: 0
      m_TileObjectToInstantiateIndex: 65535
      dummyAlignment: 0
      m_AllTileFlags: 1073741825
  - first: {x: -2, y: -2, z: 0}
    second:
      serializedVersion: 2
      m_TileIndex: 18
      m_TileSpriteIndex: 18
      m_TileMatrixIndex: 0
      m_TileColorIndex: 0
      m_TileObjectToInstantiateIndex: 65535
      dummyAlignment: 0
      m_AllTileFlags: 1073741825
  - first: {x: -1, y: -2, z: 0}
    second:
      serializedVersion: 2
      m_TileIndex: 19
      m_TileSpriteIndex: 19
      m_TileMatrixIndex: 0
      m_TileColorIndex: 0
      m_TileObjectToInstantiateIndex: 65535
      dummyAlignment: 0
      m_AllTileFlags: 1073741825
  - first: {x: 0, y: -2, z: 0}
    second:
      serializedVersion: 2
      m_TileIndex: 20
      m_TileSpriteIndex: 20
      m_TileMatrixIndex: 0
      m_TileColorIndex: 0
      m_TileObjectToInstantiateIndex: 65535
      dummyAlignment: 0
      m_AllTileFlags: 1073741825
  - first: {x: 1, y: -2, z: 0}
    second:
      serializedVersion: 2
      m_TileIndex: 21
      m_TileSpriteIndex: 21
      m_TileMatrixIndex: 0
      m_TileColorIndex: 0
      m_TileObjectToInstantiateIndex: 65535
      dummyAlignment: 0
      m_AllTileFlags: 1073741825
  - first: {x: 2, y: -2, z: 0}
    second:
      serializedVersion: 2
      m_TileIndex: 22
      m_TileSpriteIndex: 22
      m_TileMatrixIndex: 0
      m_TileColorIndex: 0
      m_TileObjectToInstantiateIndex: 65535
      dummyAlignment: 0
      m_AllTileFlags: 1073741825
  - first: {x: 3, y: -2, z: 0}
    second:
      serializedVersion: 2
      m_TileIndex: 23
      m_TileSpriteIndex: 23
      m_TileMatrixIndex: 0
      m_TileColorIndex: 0
      m_TileObjectToInstantiateIndex: 65535
      dummyAlignment: 0
      m_AllTileFlags: 1073741825
  - first: {x: -2, y: -1, z: 0}
    second:
      serializedVersion: 2
      m_TileIndex: 12
      m_TileSpriteIndex: 12
      m_TileMatrixIndex: 0
      m_TileColorIndex: 0
      m_TileObjectToInstantiateIndex: 65535
      dummyAlignment: 0
      m_AllTileFlags: 1073741825
  - first: {x: -1, y: -1, z: 0}
    second:
      serializedVersion: 2
      m_TileIndex: 13
      m_TileSpriteIndex: 13
      m_TileMatrixIndex: 0
      m_TileColorIndex: 0
      m_TileObjectToInstantiateIndex: 65535
      dummyAlignment: 0
      m_AllTileFlags: 1073741825
  - first: {x: 0, y: -1, z: 0}
    second:
      serializedVersion: 2
      m_TileIndex: 14
      m_TileSpriteIndex: 14
      m_TileMatrixIndex: 0
      m_TileColorIndex: 0
      m_TileObjectToInstantiateIndex: 65535
      dummyAlignment: 0
      m_AllTileFlags: 1073741825
  - first: {x: 1, y: -1, z: 0}
    second:
      serializedVersion: 2
      m_TileIndex: 15
      m_TileSpriteIndex: 15
      m_TileMatrixIndex: 0
      m_TileColorIndex: 0
      m_TileObjectToInstantiateIndex: 65535
      dummyAlignment: 0
      m_AllTileFlags: 1073741825
  - first: {x: 2, y: -1, z: 0}
    second:
      serializedVersion: 2
      m_TileIndex: 16
      m_TileSpriteIndex: 16
      m_TileMatrixIndex: 0
      m_TileColorIndex: 0
      m_TileObjectToInstantiateIndex: 65535
      dummyAlignment: 0
      m_AllTileFlags: 1073741825
  - first: {x: 3, y: -1, z: 0}
    second:
      serializedVersion: 2
      m_TileIndex: 17
      m_TileSpriteIndex: 17
      m_TileMatrixIndex: 0
      m_TileColorIndex: 0
      m_TileObjectToInstantiateIndex: 65535
      dummyAlignment: 0
      m_AllTileFlags: 1073741825
  - first: {x: -2, y: 0, z: 0}
    second:
      serializedVersion: 2
      m_TileIndex: 6
      m_TileSpriteIndex: 6
      m_TileMatrixIndex: 0
      m_TileColorIndex: 0
      m_TileObjectToInstantiateIndex: 65535
      dummyAlignment: 0
      m_AllTileFlags: 1073741825
  - first: {x: -1, y: 0, z: 0}
    second:
      serializedVersion: 2
      m_TileIndex: 7
      m_TileSpriteIndex: 7
      m_TileMatrixIndex: 0
      m_TileColorIndex: 0
      m_TileObjectToInstantiateIndex: 65535
      dummyAlignment: 0
      m_AllTileFlags: 1073741825
  - first: {x: 0, y: 0, z: 0}
    second:
      serializedVersion: 2
      m_TileIndex: 8
      m_TileSpriteIndex: 8
      m_TileMatrixIndex: 0
      m_TileColorIndex: 0
      m_TileObjectToInstantiateIndex: 65535
      dummyAlignment: 0
      m_AllTileFlags: 1073741825
  - first: {x: 1, y: 0, z: 0}
    second:
      serializedVersion: 2
      m_TileIndex: 9
      m_TileSpriteIndex: 9
      m_TileMatrixIndex: 0
      m_TileColorIndex: 0
      m_TileObjectToInstantiateIndex: 65535
      dummyAlignment: 0
      m_AllTileFlags: 1073741825
  - first: {x: 2, y: 0, z: 0}
    second:
      serializedVersion: 2
      m_TileIndex: 10
      m_TileSpriteIndex: 10
      m_TileMatrixIndex: 0
      m_TileColorIndex: 0
      m_TileObjectToInstantiateIndex: 65535
      dummyAlignment: 0
      m_AllTileFlags: 1073741825
  - first: {x: 3, y: 0, z: 0}
    second:
      serializedVersion: 2
      m_TileIndex: 11
      m_TileSpriteIndex: 11
      m_TileMatrixIndex: 0
      m_TileColorIndex: 0
      m_TileObjectToInstantiateIndex: 65535
      dummyAlignment: 0
      m_AllTileFlags: 1073741825
  - first: {x: -2, y: 1, z: 0}
    second:
      serializedVersion: 2
      m_TileIndex: 0
      m_TileSpriteIndex: 0
      m_TileMatrixIndex: 0
      m_TileColorIndex: 0
      m_TileObjectToInstantiateIndex: 65535
      dummyAlignment: 0
      m_AllTileFlags: 1073741825
  - first: {x: -1, y: 1, z: 0}
    second:
      serializedVersion: 2
      m_TileIndex: 1
      m_TileSpriteIndex: 1
      m_TileMatrixIndex: 0
      m_TileColorIndex: 0
      m_TileObjectToInstantiateIndex: 65535
      dummyAlignment: 0
      m_AllTileFlags: 1073741825
  - first: {x: 0, y: 1, z: 0}
    second:
      serializedVersion: 2
      m_TileIndex: 2
      m_TileSpriteIndex: 2
      m_TileMatrixIndex: 0
      m_TileColorIndex: 0
      m_TileObjectToInstantiateIndex: 65535
      dummyAlignment: 0
      m_AllTileFlags: 1073741825
  - first: {x: 1, y: 1, z: 0}
    second:
      serializedVersion: 2
      m_TileIndex: 3
      m_TileSpriteIndex: 3
      m_TileMatrixIndex: 0
      m_TileColorIndex: 0
      m_TileObjectToInstantiateIndex: 65535
      dummyAlignment: 0
      m_AllTileFlags: 1073741825
  - first: {x: 2, y: 1, z: 0}
    second:
      serializedVersion: 2
      m_TileIndex: 4
      m_TileSpriteIndex: 4
      m_TileMatrixIndex: 0
      m_TileColorIndex: 0
      m_TileObjectToInstantiateIndex: 65535
      dummyAlignment: 0
      m_AllTileFlags: 1073741825
  - first: {x: 3, y: 1, z: 0}
    second:
      serializedVersion: 2
      m_TileIndex: 5
      m_TileSpriteIndex: 5
      m_TileMatrixIndex: 0
      m_TileColorIndex: 0
      m_TileObjectToInstantiateIndex: 65535
      dummyAlignment: 0
      m_AllTileFlags: 1073741825
  m_AnimatedTiles: {}
  m_TileAssetArray:
  - m_RefCount: 1
    m_Data: {fileID: 11400000, guid: 1483bda96bd7fcc42b9f9010ed2ca7ac, type: 2}
  - m_RefCount: 1
    m_Data: {fileID: 11400000, guid: 732448691fede9f4bb73553f631bf42b, type: 2}
  - m_RefCount: 1
    m_Data: {fileID: 11400000, guid: 8236e98686ce80f48927d0311725304d, type: 2}
  - m_RefCount: 1
    m_Data: {fileID: 11400000, guid: ca4eb573635ce524bbf9422de19c8872, type: 2}
  - m_RefCount: 1
    m_Data: {fileID: 11400000, guid: 87e71451d2664494aaa4a700e18672c6, type: 2}
  - m_RefCount: 1
    m_Data: {fileID: 11400000, guid: 07c274fc2c4818a4593d5538fa8130a4, type: 2}
  - m_RefCount: 1
    m_Data: {fileID: 11400000, guid: f0f3ffd319810494190a60c1efcb7a5a, type: 2}
  - m_RefCount: 1
    m_Data: {fileID: 11400000, guid: 09f5d2c036dd8ad449fa99354d1eefa3, type: 2}
  - m_RefCount: 1
    m_Data: {fileID: 11400000, guid: 176a4a379701271418a26a516165cd09, type: 2}
  - m_RefCount: 1
    m_Data: {fileID: 11400000, guid: d395a700b064d72449b1331a09f5e10d, type: 2}
  - m_RefCount: 1
    m_Data: {fileID: 11400000, guid: 2ae6e03c0bc48754cbaf1e3c385afb8d, type: 2}
  - m_RefCount: 1
    m_Data: {fileID: 11400000, guid: f8ec052c11dbdb649a0505558b15c164, type: 2}
  - m_RefCount: 1
    m_Data: {fileID: 11400000, guid: db7d5e7a031492841aa524e6e3cf47a2, type: 2}
  - m_RefCount: 1
    m_Data: {fileID: 11400000, guid: c7482b6c056bc7c499bea21b5c6f5894, type: 2}
  - m_RefCount: 1
    m_Data: {fileID: 11400000, guid: a63270255701e674095499797c343fee, type: 2}
  - m_RefCount: 1
    m_Data: {fileID: 11400000, guid: 710b4616f29a87240badf4d252370897, type: 2}
  - m_RefCount: 1
    m_Data: {fileID: 11400000, guid: 5c46aaf0d789c87439ab718047d0613c, type: 2}
  - m_RefCount: 1
    m_Data: {fileID: 11400000, guid: c4cd6f86899fc3f4d980192cd4e99f6b, type: 2}
  - m_RefCount: 1
    m_Data: {fileID: 11400000, guid: 7dcc91ed99282704daf9fe98588bb007, type: 2}
  - m_RefCount: 1
    m_Data: {fileID: 11400000, guid: 3eea9faa9dbdd0245b02729ca6bc24c0, type: 2}
  - m_RefCount: 1
    m_Data: {fileID: 11400000, guid: e04641eb899c0e34abeac94691351255, type: 2}
  - m_RefCount: 1
    m_Data: {fileID: 11400000, guid: e078c653983965d4c97e7d17eeffcc14, type: 2}
  - m_RefCount: 1
    m_Data: {fileID: 11400000, guid: 60df2a18895df3e4bbbf2bfd3afa2a2c, type: 2}
  - m_RefCount: 1
    m_Data: {fileID: 11400000, guid: bde6c0c0f6550c44abb2203c3d39f4a3, type: 2}
  - m_RefCount: 1
    m_Data: {fileID: 11400000, guid: 97dc6ae444c880b47aa1a6b5dd38c004, type: 2}
  - m_RefCount: 1
    m_Data: {fileID: 11400000, guid: 8cd7481b1ea364a4f931e212f550cb79, type: 2}
  - m_RefCount: 1
    m_Data: {fileID: 11400000, guid: 6b101cdeb4d0e9d41b72a458a5f990b2, type: 2}
  - m_RefCount: 1
    m_Data: {fileID: 11400000, guid: d3c56836e4f2fc54a96c4a3294de97b8, type: 2}
  - m_RefCount: 1
    m_Data: {fileID: 11400000, guid: fed5c88f0a0c2c34f8197172c50b6c0f, type: 2}
  - m_RefCount: 1
    m_Data: {fileID: 11400000, guid: dff0e77aad82aac48a8eb01af9cf714b, type: 2}
  - m_RefCount: 1
    m_Data: {fileID: 11400000, guid: a21f7a96d2420fd409b4505962f8da6e, type: 2}
  - m_RefCount: 1
    m_Data: {fileID: 11400000, guid: 8745d9806b5143f47811dcfb205f4255, type: 2}
  - m_RefCount: 1
    m_Data: {fileID: 11400000, guid: a2734fd43d3466c4da454f9bcf85cdd6, type: 2}
  - m_RefCount: 1
    m_Data: {fileID: 11400000, guid: d789ebc2b85ead541b556e6dc40131c4, type: 2}
  - m_RefCount: 1
    m_Data: {fileID: 11400000, guid: f9889d7da23d9b54b8a4c96dde14473c, type: 2}
  - m_RefCount: 1
    m_Data: {fileID: 11400000, guid: 29051c03611ceae4089f6713fe639c4a, type: 2}
  m_TileSpriteArray:
  - m_RefCount: 1
    m_Data: {fileID: 735354231, guid: 0d1acb6a9c29bc94aa9cffdadab48c8e, type: 3}
  - m_RefCount: 1
    m_Data: {fileID: 37793149, guid: 0d1acb6a9c29bc94aa9cffdadab48c8e, type: 3}
  - m_RefCount: 1
    m_Data: {fileID: -890984326, guid: 0d1acb6a9c29bc94aa9cffdadab48c8e, type: 3}
  - m_RefCount: 1
    m_Data: {fileID: 410180796, guid: 0d1acb6a9c29bc94aa9cffdadab48c8e, type: 3}
  - m_RefCount: 1
    m_Data: {fileID: 707592526, guid: 0d1acb6a9c29bc94aa9cffdadab48c8e, type: 3}
  - m_RefCount: 1
    m_Data: {fileID: 1956429086, guid: 0d1acb6a9c29bc94aa9cffdadab48c8e, type: 3}
  - m_RefCount: 1
    m_Data: {fileID: 1254923550, guid: 0d1acb6a9c29bc94aa9cffdadab48c8e, type: 3}
  - m_RefCount: 1
    m_Data: {fileID: -1725202063, guid: 0d1acb6a9c29bc94aa9cffdadab48c8e, type: 3}
  - m_RefCount: 1
    m_Data: {fileID: -849403760, guid: 0d1acb6a9c29bc94aa9cffdadab48c8e, type: 3}
  - m_RefCount: 1
    m_Data: {fileID: 1629651037, guid: 0d1acb6a9c29bc94aa9cffdadab48c8e, type: 3}
  - m_RefCount: 1
    m_Data: {fileID: 18716529, guid: 0d1acb6a9c29bc94aa9cffdadab48c8e, type: 3}
  - m_RefCount: 1
    m_Data: {fileID: 876000914, guid: 0d1acb6a9c29bc94aa9cffdadab48c8e, type: 3}
  - m_RefCount: 1
    m_Data: {fileID: -2108260597, guid: 0d1acb6a9c29bc94aa9cffdadab48c8e, type: 3}
  - m_RefCount: 1
    m_Data: {fileID: 124116025, guid: 0d1acb6a9c29bc94aa9cffdadab48c8e, type: 3}
  - m_RefCount: 1
    m_Data: {fileID: -1175706955, guid: 0d1acb6a9c29bc94aa9cffdadab48c8e, type: 3}
  - m_RefCount: 1
    m_Data: {fileID: 1512142377, guid: 0d1acb6a9c29bc94aa9cffdadab48c8e, type: 3}
  - m_RefCount: 1
    m_Data: {fileID: -1347644610, guid: 0d1acb6a9c29bc94aa9cffdadab48c8e, type: 3}
  - m_RefCount: 1
    m_Data: {fileID: -909995615, guid: 0d1acb6a9c29bc94aa9cffdadab48c8e, type: 3}
  - m_RefCount: 1
    m_Data: {fileID: 1393397767, guid: 0d1acb6a9c29bc94aa9cffdadab48c8e, type: 3}
  - m_RefCount: 1
    m_Data: {fileID: 150687018, guid: 0d1acb6a9c29bc94aa9cffdadab48c8e, type: 3}
  - m_RefCount: 1
    m_Data: {fileID: 819125051, guid: 0d1acb6a9c29bc94aa9cffdadab48c8e, type: 3}
  - m_RefCount: 1
    m_Data: {fileID: -1774956617, guid: 0d1acb6a9c29bc94aa9cffdadab48c8e, type: 3}
  - m_RefCount: 1
    m_Data: {fileID: -292896746, guid: 0d1acb6a9c29bc94aa9cffdadab48c8e, type: 3}
  - m_RefCount: 1
    m_Data: {fileID: -524955605, guid: 0d1acb6a9c29bc94aa9cffdadab48c8e, type: 3}
  - m_RefCount: 1
    m_Data: {fileID: -1553272867, guid: 0d1acb6a9c29bc94aa9cffdadab48c8e, type: 3}
  - m_RefCount: 1
    m_Data: {fileID: 1373171453, guid: 0d1acb6a9c29bc94aa9cffdadab48c8e, type: 3}
  - m_RefCount: 1
    m_Data: {fileID: 231233750, guid: 0d1acb6a9c29bc94aa9cffdadab48c8e, type: 3}
  - m_RefCount: 1
    m_Data: {fileID: -271071580, guid: 0d1acb6a9c29bc94aa9cffdadab48c8e, type: 3}
  - m_RefCount: 1
    m_Data: {fileID: 1023376826, guid: 0d1acb6a9c29bc94aa9cffdadab48c8e, type: 3}
  - m_RefCount: 1
    m_Data: {fileID: 576150722, guid: 0d1acb6a9c29bc94aa9cffdadab48c8e, type: 3}
  - m_RefCount: 1
    m_Data: {fileID: 208883742, guid: 0d1acb6a9c29bc94aa9cffdadab48c8e, type: 3}
  - m_RefCount: 1
    m_Data: {fileID: -2070935005, guid: 0d1acb6a9c29bc94aa9cffdadab48c8e, type: 3}
  - m_RefCount: 1
    m_Data: {fileID: 2070310452, guid: 0d1acb6a9c29bc94aa9cffdadab48c8e, type: 3}
  - m_RefCount: 1
    m_Data: {fileID: 1244344055, guid: 0d1acb6a9c29bc94aa9cffdadab48c8e, type: 3}
  - m_RefCount: 1
    m_Data: {fileID: 723504265, guid: 0d1acb6a9c29bc94aa9cffdadab48c8e, type: 3}
  - m_RefCount: 1
    m_Data: {fileID: 1730873228, guid: 0d1acb6a9c29bc94aa9cffdadab48c8e, type: 3}
  m_TileMatrixArray:
  - m_RefCount: 36
    m_Data:
      e00: 1
      e01: 0
      e02: 0
      e03: 0
      e10: 0
      e11: 1
      e12: 0
      e13: 0
      e20: 0
      e21: 0
      e22: 1
      e23: 0
      e30: 0
      e31: 0
      e32: 0
      e33: 1
  m_TileColorArray:
  - m_RefCount: 36
    m_Data: {r: 1, g: 1, b: 1, a: 1}
  m_TileObjectToInstantiateArray: []
  m_AnimationFrameRate: 1
  m_Color: {r: 1, g: 1, b: 1, a: 1}
  m_Origin: {x: -2, y: -4, z: 0}
  m_Size: {x: 6, y: 6, z: 1}
  m_TileAnchor: {x: 0.5, y: 0.5, z: 0}
  m_TileOrientation: 0
  m_TileOrientationMatrix:
    e00: 1
    e01: 0
    e02: 0
    e03: 0
    e10: 0
    e11: 1
    e12: 0
    e13: 0
    e20: 0
    e21: 0
    e22: 1
    e23: 0
    e30: 0
    e31: 0
    e32: 0
    e33: 1
--- !u!483693784 &2699068827340904202
TilemapRenderer:
  m_ObjectHideFlags: 0
  m_CorrespondingSourceObject: {fileID: 0}
  m_PrefabInstance: {fileID: 0}
  m_PrefabAsset: {fileID: 0}
  m_GameObject: {fileID: 7050805474689081089}
  m_Enabled: 1
  m_CastShadows: 0
  m_ReceiveShadows: 0
  m_DynamicOccludee: 0
  m_StaticShadowCaster: 0
  m_MotionVectors: 1
  m_LightProbeUsage: 0
  m_ReflectionProbeUsage: 0
  m_RayTracingMode: 0
  m_RayTraceProcedural: 0
  m_RenderingLayerMask: 1
  m_RendererPriority: 0
  m_Materials:
  - {fileID: 10754, guid: 0000000000000000f000000000000000, type: 0}
  m_StaticBatchInfo:
    firstSubMesh: 0
    subMeshCount: 0
  m_StaticBatchRoot: {fileID: 0}
  m_ProbeAnchor: {fileID: 0}
  m_LightProbeVolumeOverride: {fileID: 0}
  m_ScaleInLightmap: 1
  m_ReceiveGI: 1
  m_PreserveUVs: 0
  m_IgnoreNormalsForChartDetection: 0
  m_ImportantGI: 0
  m_StitchLightmapSeams: 1
  m_SelectedEditorRenderState: 0
  m_MinimumChartSize: 4
  m_AutoUVMaxDistance: 0.5
  m_AutoUVMaxAngle: 89
  m_LightmapParameters: {fileID: 0}
  m_SortingLayerID: 0
  m_SortingLayer: 0
  m_SortingOrder: 0
  m_ChunkSize: {x: 32, y: 32, z: 32}
  m_ChunkCullingBounds: {x: 0, y: 0, z: 0}
  m_MaxChunkCount: 16
  m_MaxFrameAge: 16
  m_SortOrder: 0
  m_Mode: 0
  m_DetectChunkCullingBounds: 0
  m_MaskInteraction: 0
--- !u!114 &2753746245540903251
MonoBehaviour:
  m_ObjectHideFlags: 0
  m_CorrespondingSourceObject: {fileID: 0}
  m_PrefabInstance: {fileID: 0}
  m_PrefabAsset: {fileID: 0}
  m_GameObject: {fileID: 0}
  m_Enabled: 1
  m_EditorHideFlags: 0
  m_Script: {fileID: 12395, guid: 0000000000000000e000000000000000, type: 0}
  m_Name: Palette Settings
  m_EditorClassIdentifier: 
  cellSizing: 0
  m_TransparencySortMode: 0
  m_TransparencySortAxis: {x: 0, y: 0, z: 1}
